{
	"info": {
		"_postman_id": "96208870-50f5-473b-bb51-87da81a52616",
		"name": "Forum",
		"schema": "https://schema.getpostman.com/json/collection/v2.1.0/collection.json"
	},
	"item": [
		{
			"name": "Get all users",
			"request": {
				"auth": {
					"type": "bearer",
					"bearer": [
						{
							"key": "token",
							"value": "eyJhbGciOiJIUzI1NiIsInR5cCI6IkpXVCJ9.eyJ1c2VybmFtZSI6IlR3byIsImVtYWlsIjoidGVzdEB0ZXN0YWwudGVzdCIsInJvbGVzIjpbIkFkbWluIl0sImlhdCI6MTU4NjAwMDU2MiwiZXhwIjoxNTg2MDA0MTYyfQ.LyAB4xJ-weqftxPcSGAq-5tlnXSclUI-6igwjKeDmnI",
							"type": "string"
						}
					]
				},
				"method": "GET",
				"header": [],
				"url": {
					"raw": "localhost:3000/users",
					"host": [
						"localhost"
					],
					"port": "3000",
					"path": [
						"users"
					]
				}
			},
			"response": []
		},
		{
			"name": "Create user",
			"request": {
				"method": "POST",
				"header": [],
				"body": {
					"mode": "raw",
					"raw": "{\n\t\"username\": \"Three\",\n    \"password\": \"1upersecurepass\",\n    \"email\": \"test@testal.test\"\n}",
					"options": {
						"raw": {
							"language": "json"
						}
					}
				},
				"url": {
					"raw": "localhost:3000/users",
					"host": [
						"localhost"
					],
					"port": "3000",
					"path": [
						"users"
					]
				}
			},
			"response": []
		},
		{
			"name": "Update user roles ( Only Admin can)",
			"request": {
				"method": "PUT",
				"header": [],
				"body": {
					"mode": "raw",
					"raw": "{\n\t\"roles\": [\n\t\t\"Basic\",\n\t\t\"Admin\"\n\t]\n}",
					"options": {
						"raw": {
							"language": "json"
						}
					}
				},
				"url": {
					"raw": "localhost:3000/users/1/roles",
					"host": [
						"localhost"
					],
					"port": "3000",
					"path": [
						"users",
						"1",
						"roles"
					]
				}
			},
			"response": []
		},
		{
			"name": "Delete User (Only Admin can)",
			"request": {
				"auth": {
					"type": "bearer",
					"bearer": [
						{
							"key": "token",
							"value": "eyJhbGciOiJIUzI1NiIsInR5cCI6IkpXVCJ9.eyJ1c2VybmFtZSI6IlR3byIsImVtYWlsIjoidGVzdEB0ZXN0YWwudGVzdCIsInJvbGVzIjpbIkFkbWluIl0sImlhdCI6MTU4NjAwMDU2MiwiZXhwIjoxNTg2MDA0MTYyfQ.LyAB4xJ-weqftxPcSGAq-5tlnXSclUI-6igwjKeDmnI",
							"type": "string"
						}
					]
				},
				"method": "DELETE",
				"header": [],
				"url": {
					"raw": "localhost:3000/users?username=NEW",
					"host": [
						"localhost"
					],
					"port": "3000",
					"path": [
						"users"
					],
					"query": [
						{
							"key": "username",
							"value": "NEW"
						}
					]
				}
			},
			"response": []
		},
		{
			"name": "Get all posts",
			"request": {
				"auth": {
					"type": "bearer",
					"bearer": [
						{
							"key": "token",
							"value": "eyJhbGciOiJIUzI1NiIsInR5cCI6IkpXVCJ9.eyJ1c2VybmFtZSI6IlRocmVlIiwiZW1haWwiOiJ0ZXN0QHRlc3RhbC50ZXN0Iiwicm9sZXMiOlsiQmFzaWMiXSwiaWF0IjoxNTg1OTk1NjM0LCJleHAiOjE1ODU5OTkyMzR9.IudS6hxBxWkNGtLefagsvg9IWkgdTebQ5AtK8_ugouA",
							"type": "string"
						}
					]
				},
				"method": "GET",
				"header": [],
				"url": {
					"raw": "localhost:3000/postals",
					"host": [
						"localhost"
					],
					"port": "3000",
					"path": [
						"postals"
					]
				}
			},
			"response": []
		},
		{
			"name": "Create post",
			"request": {
				"auth": {
					"type": "bearer",
					"bearer": [
						{
							"key": "token",
							"value": "eyJhbGciOiJIUzI1NiIsInR5cCI6IkpXVCJ9.eyJ1c2VybmFtZSI6IlRocmVlIiwiZW1haWwiOiJ0ZXN0QHRlc3RhbC50ZXN0Iiwicm9sZXMiOlsiQmFzaWMiXSwiaWF0IjoxNTg1OTk1NjM0LCJleHAiOjE1ODU5OTkyMzR9.IudS6hxBxWkNGtLefagsvg9IWkgdTebQ5AtK8_ugouA",
							"type": "string"
						}
					]
				},
				"method": "POST",
				"header": [],
				"body": {
					"mode": "raw",
					"raw": "{\n\t\"title\": \"POST\",\n\t\"content\": \"New post by Two\"\n}",
					"options": {
						"raw": {
							"language": "json"
						}
					}
				},
				"url": {
					"raw": "localhost:3000/postals",
					"host": [
						"localhost"
					],
					"port": "3000",
					"path": [
						"postals"
					]
				}
			},
			"response": []
		},
		{
			"name": "Update post",
			"request": {
				"auth": {
					"type": "bearer",
					"bearer": [
						{
							"key": "token",
							"value": "eyJhbGciOiJIUzI1NiIsInR5cCI6IkpXVCJ9.eyJ1c2VybmFtZSI6IlRocmVlIiwiZW1haWwiOiJ0ZXN0QHRlc3RhbC50ZXN0Iiwicm9sZXMiOlsiQmFzaWMiXSwiaWF0IjoxNTg1OTk1NjM0LCJleHAiOjE1ODU5OTkyMzR9.IudS6hxBxWkNGtLefagsvg9IWkgdTebQ5AtK8_ugouA",
							"type": "string"
						}
					]
				},
				"method": "PUT",
				"header": [],
				"body": {
					"mode": "raw",
					"raw": "{\n\t\"title\": \"UPDATED\",\n\t\"content\": \"Updated by Three\"\n}",
					"options": {
						"raw": {
							"language": "json"
						}
					}
				},
				"url": {
					"raw": "localhost:3000/postals/210f0c5e-00a1-4109-8838-f7b27b81f9f5",
					"host": [
						"localhost"
					],
					"port": "3000",
					"path": [
						"postals",
						"210f0c5e-00a1-4109-8838-f7b27b81f9f5"
					]
				}
			},
			"response": []
		},
		{
			"name": "Delete post",
			"request": {
				"auth": {
					"type": "bearer",
					"bearer": [
						{
							"key": "token",
							"value": "eyJhbGciOiJIUzI1NiIsInR5cCI6IkpXVCJ9.eyJ1c2VybmFtZSI6IlR3byIsImVtYWlsIjoidGVzdEB0ZXN0YWwudGVzdCIsInJvbGVzIjpbIkFkbWluIl0sImlhdCI6MTU4NTkzMzA4MiwiZXhwIjoxNTg1OTM2NjgyfQ.vyFRXCMY6vn54fGlgTMB_wNTa9iCli4XLp_ezCGbiF8",
							"type": "string"
						}
					]
				},
				"method": "DELETE",
				"header": [],
				"url": {
					"raw": "localhost:3000/postals/422a2fc9-5d99-41bd-85b1-71707ce0c887",
					"host": [
						"localhost"
					],
					"port": "3000",
					"path": [
						"postals",
						"422a2fc9-5d99-41bd-85b1-71707ce0c887"
					]
				}
			},
			"response": []
		},
		{
			"name": "Get all comments",
			"request": {
				"auth": {
					"type": "bearer",
					"bearer": [
						{
							"key": "token",
							"value": "eyJhbGciOiJIUzI1NiIsInR5cCI6IkpXVCJ9.eyJ1c2VybmFtZSI6IlRocmVlIiwiZW1haWwiOiJ0ZXN0QHRlc3RhbC50ZXN0Iiwicm9sZXMiOlsiQmFzaWMiXSwiaWF0IjoxNTg1OTk1NjM0LCJleHAiOjE1ODU5OTkyMzR9.IudS6hxBxWkNGtLefagsvg9IWkgdTebQ5AtK8_ugouA",
							"type": "string"
						}
					]
				},
				"method": "GET",
				"header": [],
				"url": {
					"raw": "localhost:3000/comments",
					"host": [
						"localhost"
					],
					"port": "3000",
					"path": [
						"comments"
					]
				}
			},
			"response": []
		},
		{
			"name": "Crate comment",
			"request": {
				"auth": {
					"type": "bearer",
					"bearer": [
						{
							"key": "token",
							"value": "eyJhbGciOiJIUzI1NiIsInR5cCI6IkpXVCJ9.eyJ1c2VybmFtZSI6IlRocmVlIiwiZW1haWwiOiJ0ZXN0QHRlc3RhbC50ZXN0Iiwicm9sZXMiOlsiQmFzaWMiXSwiaWF0IjoxNTg1OTk1NjM0LCJleHAiOjE1ODU5OTkyMzR9.IudS6hxBxWkNGtLefagsvg9IWkgdTebQ5AtK8_ugouA",
							"type": "string"
						}
					]
				},
				"method": "POST",
				"header": [],
				"body": {
					"mode": "raw",
					"raw": "{\n\t\"content\": \"New comment! BY THREE !!!\"\n}",
					"options": {
						"raw": {
							"language": "json"
						}
					}
				},
				"url": {
					"raw": "localhost:3000/postals/14d7ea57-e12c-410c-8143-1af949aa982e/comment",
					"host": [
						"localhost"
					],
					"port": "3000",
					"path": [
						"postals",
						"14d7ea57-e12c-410c-8143-1af949aa982e",
						"comment"
					]
				}
			},
			"response": []
		},
		{
			"name": "Update comment",
			"request": {
				"auth": {
					"type": "bearer",
					"bearer": [
						{
							"key": "token",
							"value": "eyJhbGciOiJIUzI1NiIsInR5cCI6IkpXVCJ9.eyJ1c2VybmFtZSI6IlR3byIsImVtYWlsIjoidGVzdEB0ZXN0YWwudGVzdCIsInJvbGVzIjpbIkFkbWluIl0sImlhdCI6MTU4NTk5NTM3OCwiZXhwIjoxNTg1OTk4OTc4fQ.TO4kLz-cOGYZRa7SYTdFH0oMUgIxn8EEgGUghS7P-UA",
							"type": "string"
						}
					]
				},
				"method": "PUT",
				"header": [],
				"body": {
					"mode": "raw",
					"raw": "{\n\t\"content\": \"UPDATED! By THREE\"\n}",
					"options": {
						"raw": {
							"language": "json"
						}
					}
				},
				"url": {
					"raw": "localhost:3000/comment/4374bc99-2e6e-4f8f-b80f-878427447d83",
					"host": [
						"localhost"
					],
					"port": "3000",
					"path": [
						"comment",
						"4374bc99-2e6e-4f8f-b80f-878427447d83"
					]
				}
			},
			"response": []
		},
		{
			"name": "Delete comment",
			"request": {
				"auth": {
					"type": "bearer",
					"bearer": [
						{
							"key": "token",
							"value": "eyJhbGciOiJIUzI1NiIsInR5cCI6IkpXVCJ9.eyJ1c2VybmFtZSI6IlR3byIsImVtYWlsIjoidGVzdEB0ZXN0YWwudGVzdCIsInJvbGVzIjpbIkFkbWluIl0sImlhdCI6MTU4NTk5NTM3OCwiZXhwIjoxNTg1OTk4OTc4fQ.TO4kLz-cOGYZRa7SYTdFH0oMUgIxn8EEgGUghS7P-UA",
							"type": "string"
						}
					]
				},
				"method": "DELETE",
				"header": [],
				"url": {
					"raw": "localhost:3000/comment/4374bc99-2e6e-4f8f-b80f-878427447d83",
					"host": [
						"localhost"
					],
					"port": "3000",
					"path": [
						"comment",
						"4374bc99-2e6e-4f8f-b80f-878427447d83"
					]
				}
			},
			"response": []
		},
		{
			"name": "Create token for user",
			"request": {
				"method": "POST",
				"header": [],
				"body": {
					"mode": "raw",
					"raw": "{\n\t\"username\": \"Two\",\n    \"password\": \"1upersecurepass\"\n}",
					"options": {
						"raw": {
							"language": "json"
						}
					}
				},
				"url": {
					"raw": "localhost:3000/auth",
					"host": [
						"localhost"
					],
					"port": "3000",
					"path": [
						"auth"
					]
				}
			},
			"response": []
		}
	],
	"protocolProfileBehavior": {}
}